Code;ICAO;Name
2I;CSB;21 Air
4Q;ONY;25only Aviation
;BRO;2Excel Aviation
Q5;MLA;40-Mile Air
FE;IHO;748 Air Services
AQ;JYH;9 Air
S5;NKP;Abakan Air
;ABP;ABS Jets
;BAR;Abu Dhabi Aviation
GB;ABX;ABX Air
;SON;Acass Ireland
AN;WSN;Advanced Air
A3;AEE;Aegean Airlines
EI;EIN;Aer Lingus
EG;EUK;Aer Lingus UK
JK;ACL;AerCaribe
N2;NIG;Aero
;AKF;Aero Asahi Corporation
;GLT;Aero Charter
;CTA;Aero Charter and Transport
;AEO;Aero Guernsey
RF;EOK;Aero K
M0;MNG;Aero Mongolia
;ANK;Aero Nomad Airlines
;ASR;Aero Sotravia
;ABA;Aero-Beta Flight Training
;ADN;Aero-Dienst
;RSR;Aero-Service
SU;AFL;Aeroflot
XZ;AEZ;Aeroitalia
AR;ARG;Aerolineas Argentinas
;LET;Aerolineas Ejecutivas
P4;NSO;Aerolineas Sosa
A8;XAU;Aerolink Uganda
3S;BOX;AeroLogic
VW;TAO;Aeromar
AM;AMX;Aeromexico
5D;SLI;Aeromexico Connect
;VTM;Aeronaves TSM
;DFC;Aeropartner
;RER;Aeroregional
;TAA;Aeroservicios de la Costa
;BSC;Aerostan
;KRE;Aerosucre
;ASO;Aerosul Linhas Aereas
;AEP;Aerotec
;ATU;Aerotours
F5;ATG;Aerotranscargo
6R;TNO;AeroUnion
V5;DAP;Aerovias DAP
;VIZ;Aerovis Airlines
4D;DIR;Aerro Direkt
;AFF;AF-Aviation
L8;EKG;Afric Aviation
;AAT;Africa Airlines
AW;AFW;Africa World Airlines
XU;AXK;African Express Airways
J7;ABS;Afrijet
8U;AAW;Afriqiyah Airways
;RUF;Air 1st Aviation
ZB;ABN;Air Albania
AH;DAH;Air Algerie
;AYY;Air Alliance
6I;MMD;Air Alsie
3S;GUY;Air Antilles
G9;ABY;Air Arabia
3L;ADY;Air Arabia Abu Dhabi
E5;RBG;Air Arabia Egypt
3O;MAC;Air Arabia Maroc
KC;KZR;Air Astana
CT;AAE;Air Atlanta Europe
CC;ABD;Air Atlanta Icelandic
UU;REU;Air Austral
W9;JAB;Air Bagan
BT;BTI;Air Baltic
KF;ABB;Air Belgium
;BOH;Air Bohemia
;LBR;Air Borealis
BP;BOT;Air Botswana
;BUR;Air Bucharest
2J;VBW;Air Burkina
BX;ABL;Air Busan
SM;MSC;Air Cairo
TY;TPC;Air Caledonie
AC;ACA;Air Canada
RV;ROU;Air Canada Rouge
TX;FWI;Air Caraibes
;CMF;Air Care Alliance
2Q;SNC;Air Cargo Carriers
CW;CCC;Air Cargo Global
Y2;CEY;Air Century
9H;CGN;Air Changan
;NGF;Air Charity Network
;EDC;Air Charter Scotland
;SCO;Air Charter Scotland Europe
3C;CVA;Air Chathams
CA;CCA;Air China
;CAO;Air China Cargo
;CNM;Air China Inner Mongolia
3E;ACO;Air Choice One
;RJR;Air CM Global
;CPV;Air Corporate
XK;CCM;Air Corsica
RI;RII;Air Costa Rica
HF;VRE;Air Cote d'Ivoire
YN;CRQ;Air Creebec
;DKN;Air Deccan
HD;ADO;Air Do
EN;DLA;Air Dolomiti
UX;AEA;Air Europa
X5;OVA;Air Europa Express
;XLL;Air Excel
FS;FPK;Air Falcon
F4;WAF;Air Flamenco
AF;AFR;Air France
A5;HOP;Air France Hop
DC;AGF;Air Georgia
;GHN;Air Ghana
GL;GRL;Air Greenland
GT;CGH;Air Guilin
;AHO;Air Hamburg
LD;AHK;Air Hong Kong
HT;HAT;Air Horizont
KJ;AIH;Air Incheon
AI;AIC;Air India
IX;AXB;Air India Express
3H;AIE;Air Inuit
NQ;AJX;Air Japan
K7;KBZ;Air KBZ
IK;AKL;Air Kiribati
JS;KOR;Air Koryo
AL;ALD;Air Leisure
DU;LSJ;Air Liaison
7I;TLR;Air Libya
;RLY;Air Loyaute
NX;AMU;Air Macau
MD;MDG;Air Madagascar
KM;AMC;Air Malta
ZM;MBB;Air Manas
MK;MAU;Air Mauritius
MV;MAR;Air Mediterranean
9U;MLD;Air Moldova
;MNE;Air Montenegro
NZ;ANZ;Air New Zealand
PX;ANG;Air Niugini
4N;ANT;Air North
YW;ANE;Air Nostrum
;BFF;Air Nunavut
7P;PST;Air Panama
P4;APK;Air Peace
YP;APZ;Air Premia
GZ;RAR;Air Rarotonga
PJ;SPM;Air Saint-Pierre
HC;SZN;Air Senegal
RS;ASV;Air Seoul
HM;SEY;Air Seychelles
4D;ASD;Air Sinai
;ASB;Air Spray
;RSI;Air Sunshine
VT;VTA;Air Tahiti
TN;THT;Air Tahiti Nui
TC;ATC;Air Tanzania
;IBJ;Air Taxi & Charter International
ST;AYG;Air Thanlwin
8T;TIN;Air Tindi
TS;TSC;Air Transat
;EAT;Air Transport Europe
8C;ATN;Air Transport International
A6;OTC;Air Travel
3N;URG;Air Urga
NF;AVN;Air Vanuatu
;VLB;Air Volta
ZW;AWI;Air Wisconsin
AX;AXY;Air X Charter
UM;AZW;Air Zimbabwe
;AGV;Air-Glaciers
;TWG;Air-Taxi Europe
9T;RUN;AirACT
AK;AXM;AirAsia
I5;IAD;AirAsia India
D7;XAX;AirAsia X
UN;ARB;Airbahn
PA;ABQ;AirBlue
RU;ABW;AirBridgeCargo Airlines
;AIB;Airbus
4Y;BGA;Airbus Transport International
SB;ACI;Aircalin
RM;NGT;Aircompany Armenia
;RVJ;Aircraft Management Group
;AEN;Aireon Canada
;AEG;Airest
ED;AXE;AirExplore
;AFE;Airfast Indonesia
;XGO;AirGO Private Airline
;GJM;Airhub Airlines
P2;XAK;Airkenya Express
;ARL;Airlec Air Espace
;ALI;Airlift
;AIR;Airlift International
;JAR;Airlink
4Z;LNK;Airlink
;USC;AirNet
TL;ANO;Airnorth
;APC;Airpac Airlines
;PNK;AirPink
JU;ASL;AirSERBIA
;XSN;AirSF Flight Services
;XSR;AirShare
PF;SIF;AirSial
;XSM;AirSmart
;ASP;AirSprint
T6;ATX;AirSWIFT
9L;TOW;AirTanker
;NWG;Airwing
;AWK;Airwork
;PNX;AIS Airlines
;AJY;Ajwaa Airlines
QP;AKJ;Akasa Air
NG;NAD;Al-Naser Wings
;SVL;Alante Air Charter
AS;ASA;Alaska Airlines
KO;AER;Alaska Central Express
AP;LAV;AlbaStar
G0;GAL;Albatros Airlines
2B;AWT;Albawings
;LUC;Albinati Aeronautics
;ULC;Albinati Aeronautics
DQ;KHH;Alexandria Airlines
5E;AJJ;Alfa Airlines
;FSY;Algonquin Airlink
D4;LID;Alidaunia
CP;LSI;AlisCargo Airlines
;TJD;Aliserio
;VBB;ALK Airlines
;ALN;Alkan Air
;AKN;Alkan Air
NH;ANA;All Nippon Airways
G4;AAY;Allegiant Air
9I;LLR;Alliance Air
QQ;UTY;Alliance Airlines
4W;AJK;Allied Air
UJ;LMU;AlMasria Universal Airlines
KH;AAH;Aloha Air Cargo
;BIC;Alphaland Aviation
5A;AIP;Alpine Air Express
;FSE;Alpine Flightservice
6R;DRU;Alrosa
;ALW;ALS
;AGH;Altagna
MZ;AHX;Amakusa Airlines
HP;APF;Amapola Flyg
Z8;AZN;Amaszonas
;AMV;AMC Airlines
;AMQ;AMC Aviation
8R;AIA;Amelia
NL;AEH;Amelia International
;GTW;American Air Charter
AA;AAL;American Airlines
A8;AMF;Ameriflight
M6;AJT;Amerijet International
7Z;AJI;Ameristar
;FDS;AMREF Flying Doctors
;GEO;AMS Airlines
EH;AKX;ANA Wings
DM;SSV;Anda Air
;ANS;Andes Lineas Aereas
2G;AGU;Angara Airlines
Q3;AXL;Anguilla Air Services
A2;AWG;Animawings
;ADB;Antonov Airlines
GP;RIV;APG Airlines
DM;DWI;Arajet
;AZE;Arcus Air
FG;AFG;Ariana Afghan Airlines
W3;ARA;Arik Air
;OAO;Arkhangelsk Airlines
IZ;AIZ;Arkia Israeli Airlines
6A;AMW;Armenia Airways
AG;ARU;Aruba Airlines
;CEU;ASAS Linhas Aereas
;ESW;ASG Business Aviation
P9;MGE;Asia Pacific Airlines
;LIC;Asia Sky Lines
OZ;AAR;Asiana Airlines
KP;SKK;Asky Airlines
;ABR;ASL Airlines
3V;TAY;ASL Airlines Belgium
5O;FPO;ASL Airlines France
;FAH;ASL Airlines Hungary
;ABV;ASL Airlines UK
0A;SUL;Asta Linhas Aereas
;ASJ;Astonjet
8V;ACP;Astral Aviation
I3;TBZ;ATA Airlines
;CYO;ATI Jet
RC;FLI;Atlantic Airways
5Y;GTI;Atlas Air
;ATL;Atlas Air Service
V8;VAS;Atran
;WPR;Auckland Rescue Helicopter
U5;GWR;Aura Airlines
UI;AUK;Auric Air
GR;AUR;Aurigny Air Services
HZ;SHU;Aurora
OS;AUA;Austrian Airlines
;AJO;Av8Jet
;ATV;Avanti Air
;TTE;Avcenter
;AOJ;Avcon Jet
;VCJ;Avcon Jet Malta
;VAJ;Avcon Jet San Marino
XP;VXP;Avelo Airlines
YK;AVJ;Avia Traffic
ZR;AZS;Aviacon Zitotrans
AV;AVA;Avianca
QT;TPA;Avianca Cargo
TA;TAI;Avianca Central America
LR;LRC;Avianca Costa Rica
2K;GLG;Avianca Ecuador
EX;AVR;Avianca Express
GU;GUG;Avianca Guatemala
;VIT;Aviastar
4B;TUP;Aviastar-TU
;LKF;Aviation Advisor
;HZS;Aviation Horizons
X9;NVD;Avion Express
X8;MLH;Avion Express Malta
;VND;Avionord
9V;ROI;Avior Airlines
;VSR;Aviostart
J2;AHY;Azerbaijan Airlines
A4;AZO;Azimuth
ZQ;AZM;Azman Air
S4;RZO;Azores Airlines
AJ;AZY;Aztec Airways
2F;ACN;Azul Conecta
AD;AZU;Azul Linhas Aereas
ZF;AZV;Azur Air
QU;UTN;Azur Air Ukraine
CJ;CFE;BA CityFlyer
;INR;Babcock MCS Espana
;PTH;Babcock MCS France
;ELH;Babcock MCS Italia
;BND;Babcock MCS Offshore
;RHD;Babcock MCS Onshore
;BBO;Babcock MCS Portugal
;DFL;Babcock Scandinavian AirAmbulance
;BNO;Babcock Scandinavian AirAmbulance
;BAO;Baden Aircraft Operations
J4;BDR;Badr Airlines
;BAE;BAe Systems
;VSB;BAe Systems Marine
UP;BHS;Bahamasair
;BRJ;Bairline
BM;BFO;Bakhtar Afghan Airlines
QH;BAV;Bamboo Airways
PG;BKP;Bangkok Airways
;BKA;BankAir
;BXH;Bar XH Air
;BVN;Baron Aviation Services
5B;BSX;Bassaka Air
ID;BTK;Batik Air
JV;BLS;Bearskin Airlines
7B;UBE;Bees Airline
;BJN;Beijing Airlines
;BBX;Bel Air Aviation
B2;BRU;Belavia
CH;BMJ;Bemidji Airlines
8E;BRG;Bering Air
J8;BVT;Berjaya Air
NB;BNL;Berniq Airways
;BYA;Berry Aviation
;BFY;Bestfly Aruba
3B;BCV;Bestfly Cabo Verde
8H;BGH;BH Air
B3;BTN;Bhutan Airlines
;BHR;Bighorn Airways
BG;BBC;Biman Bangladesh Airlines
;BID;BinAir
NT;IBB;Binter Canarias
;BIO;Bioflight
BH;BML;Bismillah Airlines
0B;BLA;Blue Air
;BLB;Blue Bird Aviation
BZ;BDA;Blue Dart Aviation
SI;BCI;Blue Islands
;BSG;Blue Square Aviation
BZ;BBG;Bluebird Airways
;BBZ;Bluebird Aviation
BO;BBD;Bluebird Nordic
;BOE;Boeing
OB;BOV;Boliviana de Aviacion
;BOO;Bookajet
4B;BTQ;Boutique Air
TF;BRX;BRA
;BAY;Bravo Airways
MX;MXY;Breeze Airways
;BHL;Bristow Helicopters
;BHN;Bristow Nigeria
;NOR;Bristow Norway
L9;BTZ;Bristow US
BA;BAW;British Airways
;SHT;British Airways Shuttle
;CFL;Bromma Air Maintenance
SN;BEL;Brussels Airlines
RP;BPS;Budapest Aircraft Service
U4;BHA;Buddha Air
BD;BGN;Budget Lines
;BFL;Buffalo Airways
LB;BVL;Bul Air
;BGF;Bulgaria - Government
FB;LZB;Bulgaria Air
UZ;BRQ;Buraq Air
;JMP;Business Wings
RR;RYS;Buzz
;BYS;BySky
;RWG;C&M Airways
VR;TCV;Cabo Verde Airlines
9Q;CXE;Caicos Express Airways
5C;ICL;CAL Cargo Airlines
A7;CFV;Calafia Airlines
MO;CAV;Calm Air
;CMD;Calstar
QC;CRC;Camair-Co
KR;KME;Cambodia Airways
K6;KHV;Cambodia Angkor Air
BD;BYC;Cambodia Bayon Airlines
UY;UYC;Cameroon Airlines
;TGO;Canada - Department of Transport
;TWC;Canadian Airways Congo
5T;AKT;Canadian North
;RSC;Canarias Airlines
PM;CNF;CanaryFly
;CNA;Canavia
C6;CJA;Canjet Airlines
;MFC;Canlink Aviation
;CWA;CanWest Air
9K;KAP;Cape Air
;EGL;Capital Air Ambulance
JD;CBJ;Capital Airlines
;CCQ;Capital City Air Carriers
;SGO;Cardiff Aviation Malta
;CAD;Cardig Air
;CGF;Cargo Air
C3;CTW;Cargo Three
W8;CJT;Cargojet Airways
6L;GCL;CargoLogic Germany
P3;CLU;CargoLogicAir
CV;CLX;Cargolux
C8;ICV;Cargolux Italia
BW;BWA;Caribbean Airlines
V3;KRP;Carpatair
;CRN;Carson Air
RV;CPN;Caspian Airlines
;CSJ;Castle Aviation
;CAZ;CAT Aviation
CX;CPA;Cathay Pacific
;VCG;Catreus
;CVK;Cavok Air
KX;CAY;Cayman Airways
DG;SRQ;Cebgo
5J;CEB;Cebu Pacific
C2;CEL;Ceiba Intercontinental
5Z;KEM;CemAir
;CTL;Central Air Southwest
I9;HLF;Central Airlines
9M;GLR;Central Mountain Air
;CLF;Centreline
;IRU;Chabahar Airlines
GM;GSW;Chair Airlines
CE;CLG;Chalair Aviation
X7;CHG;Challenge Airlines
6Q;SAW;Cham Wings Airlines
;LTC;Charter Jets
;HRT;Chartright Air
;HMB;CHC Helicopter
;HNL;CHC Helicopters Netherlands
;ATQ;CHC Helicopters Nigeria
;HKS;CHC Helikopter Service
;GCY;CHC International
EU;UEA;Chengdu Airlines
;GLH;Chervon Corporation
;WDY;Chicago Jet Group
CI;CAL;China Airlines
CK;CKK;China Cargo Airlines
GI;LHA;China Central Longhao Airlines
MU;CES;China Eastern Airlines
G5;HXA;China Express Airlines
CF;CYZ;China Postal Airlines
CZ;CSN;China Southern Airlines
KN;CUA;China United Airlines
OQ;CQN;Chongqing Airlines
;NDL;Chrono Aviation
MB;MBK;Chrono Jet
C7;CIN;Cinnamon Air
;CHC;CITIC Offshore Helicopter
QG;CTV;Citilink
WX;BCY;Cityjet
;CAP;Civil Air Patrol
;DUC;Class Aviation
;ORO;Clipper Jet
CC;OMT;CM Airlines
;CMA;CMA CGM AirCargo
CQ;CSV;Coastal Aviation
CO;FCB;Cobalt Air
NC;JTE;Cobham Aviation
;NJS;Cobham Aviation Services Australia
;CLB;Cobham Flight Inspection
GY;CGZ;Colorful GuiZhou Airlines
MN;CAW;Comair
CS;CXB;Comlux Aruba
;CLA;Comlux Aviation
;MLM;Comlux Aviation Malta
C5;UCA;CommutAir
;CPI;Compagnia Aeronautica Italiana
;ADZ;Compass Cargo Airlines
;FGD;Conair
DE;CFG;Condor
8Z;CGA;Congo Airways
MW;WZM;Connect Airlines
6C;CNT;Connect Linhas Aereas
C4;QAI;Conquest Air
LF;VTE;Contour Aviation
V0;VCV;Conviasa
CM;CMP;Copa Airlines
;CAT;Copenhagen Airtaxi
XC;CAI;Corendon Airlines
XR;CXI;Corendon Airlines Europe
CD;CND;Corendon Dutch Airlines
;CPT;Corporate Air
;MLN;Corporate Air
SS;CRL;Corsair
GW;GRA;Costa Rica Green Airways
Z7;AUZ;Cristalux
OU;CTN;Croatia Airlines
C8;CRA;Cronos Airlines
;CKL;Cronos Airlines Benin
;IRO;CSA Air
;CSI;CSI Aviation
CU;CUB;Cubana
;RGN;Cygnus Air
CY;CYP;Cyprus Airways
OK;CSA;Czech Airlines
D3;DAO;Daallo Airlines
;CCD;Dalian Airlines
9J;DAN;Dana Air
;DSO;Dassault Falcon Service
DX;DTR;DAT
R6;DNU;DAT LT
;DCS;DC Aviation
;WKT;DEA Aviation
;DER;Deer Jet
;BDJ;Deer Jet Beijing
DL;DAL;Delta Air Lines
;DPJ;Delta Private Jets
D9;DAI;Dena Airways
G6;DNM;Denim Air
;DRY;Deraya
;DJR;Desert Jet
D0;DHK;DHL
D5;DAE;DHL Aero Expreso
Q7;DHA;DHL Air Austria
ES;DHX;DHL Aviation EEMEA
;DMS;Diamond Sky
;DCT;Directflight
3R;DVR;Divi Divi Air
;UDN;Dniproavia
DZ;EPA;Donghai Airlines
DO;DAV;Dornier Aviation Nigeria Aiep
DH;DTS;Douniah Airlines
;CBM;DragonFly Executive
;DLX;Dreamline Aviation
1I;AMB;DRF Luftrettung
KB;DRK;Druk Air
;DUB;Dubai Air Wing
;CAH;E+S Air
;EFD;E-Aviation
RF;ERF;E-Cargo Airlines
;AED;EADS CASA
;EGU;Eagle Air
;FEI;Eagle Air Iceland
;EAG;Eagle Airways
;EAB;Eagle Atlantic Airlines
;EGC;Eagle Creek Aviation
;EMD;EagleMed
;ECJ;East Coast Jets
;EWU;East-West Express
ZE;ESR;Eastar Jet
2D;EAL;Eastern Airlines
T3;EZE;Eastern Airways
;EAQ;Eastern Australia Airlines
VE;EFY;EasyFly
U2;EZY;easyJet
EC;EJU;easyJet Europe
DS;EZS;easyJet Switzerland
;SRK;EATIS
;ECC;Eclair Aviation
;EKO;ECO Airlines
8J;ECO;EcoJet
WK;EDW;Edelweiss Air
;EGT;EGT Jet
MS;MSR;EgyptAir
;MSX;EgyptAir Cargo
LY;ELY;El Al
;EAF;Electra Airways
;EFG;Elifriulia
;EOA;Elilombarda
;EOS;Eliossola
;ELA;Elitaliana
;EAV;Elitavia
MA;EAU;Elitavia Malta
;ELZ;Elite Air
7Q;MNU;Elite Airways
;FGS;Elitellina
;EMB;Embraer
EA;EAI;Emerald Airlines
;EMT;Emetebe.com.ec
EK;UAE;Emirates
;EMM;Emperor Aviation
EM;CFS;Empire Airlines
;MJE;Empire Aviation
;NAK;ENAC Ecole Aviation Civile
;DKT;Encore Air Cargo
9E;EDV;Endeavor Air
E4;ENT;Enter Air
MQ;ENY;Envoy Air
;GRV;Epsilon Aviation
HN;EQX;Equair
B8;ERT;Eritrean Airlines
E7;ESF;Estafeta
ES;ETR;Estelar
LI;EZZ;ETF Airways
ET;ETH;Ethiopian Airlines
EY;ETD;Etihad Airways
;EUL;Euro Link
5B;EAK;Euro-Asia Air
YU;MMZ;EuroAtlantic Airways
;RDF;Eurocopter Deutschland
H6;BUC;European Air Charter
QY;BCS;European Air Transport
;URO;European Cargo
;PTO;European Flight Academy
;EUW;European Flight Service
;FYS;European Flyers
;EKT;European SAO
EW;EWG;Eurowings
4Y;OCN;Eurowings Discover
E2;EWE;Eurowings Europe
BR;EVA;EVA Air
5V;VTS;Everts Air Alaska
ZD;EWR;EWA Air
;ECA;Excellent Air
;EFT;Execuflight
;EJO;Execujet Middle East
;VMP;Execujet Scandinavia
;EXJ;Executive Jet Charter
;EJM;Executive Jet Management
;JME;Executive Jet Management
8K;EVS;Exploits Valley Air Services
7A;XRC;Express Air Cargo
QE;EFA;Express Freighters Australia
EV;ASQ;ExpressJet
XE;BTA;ExpressJet Airlines
;XRO;Exxaero
7Z;EZR;EZ Air
MG;EZA;Eznis Airways
;IFA;FAI rent-a-jet
FE;FEA;Far Eastern Air Transport
;PBR;Fast Air
FN;FTZ;Fastjet
FN;FJW;Fastjet Zimbabwe
FX;FDX;FedEx
;FNX;Fenix Air Charter
;FFD;Feuerwehr-Flugdienst Niedersachsen
FJ;FJI;Fiji Airways
;FJA;Fiji Link
;FTR;Finistair
AY;FIN;Finnair
;FIH;FinnHEMS
FY;FFM;Firefly
7F;FAB;First Air
;FRN;First Nation Airways
8D;EXV;FitsAir
F8;FLE;Flair Airlines
;FRF;Fleet Air International
W2;FXT;Flexflight
;LXJ;Flexjet
;FLJ;Flexjet Europe
;FJO;Flexjet Operations Malta
;FCK;Flight Calibration Services
;VOR;Flight Calibration Services
;OPT;Flight options
;AYR;Flight Training Europe
;FEX;FlightExec
;FTL;Flightline
;DCM;Fltplan
NY;FXI;Flugfelag Islands
;FSF;Fly 7
;ACW;Fly Across
ZC;FZW;Fly Africa Zimbabwe
;BER;Fly Air41
8W;EDR;Fly AllWays
EQ;FLA;Fly Angola
VF;FBB;Fly Armenia Airways
T2;FLB;Fly Art
IF;FBA;Fly Baghdad
4V;FGW;Fly Gangwon
OJ;FJM;Fly Jamaica
F0;FJR;Fly Jordan
5F;FIA;Fly One
YI;OYA;Fly Oya
FP;PVV;Fly Pro
;EXZ;Fly SAX
;FSQ;Fly Sky Airlines
;FSU;Fly Sky Airlines
;FTY;Fly Tyrol
;VAW;Fly2Sky
5H;FFV;Fly540
F3;FAD;Flyadeal
G6;ACY;FlyArna
BE;BEE;Flybe
S9;FLG;FlyBig
FO;FBZ;Flybondi
6W;FBS;FlyBosnia
4J;FDK;FlyDamas
FZ;FDB;FlyDubai
FT;FEG;FlyEgypt
SX;TOR;FlyGTA Airlines
;FBX;Flying Business Aviation
;FYG;Flying Service
VP;VQI;FlyMe
5M;MNT;FlyMontserrat
XY;KNE;Flynas
FP;FRE;FlyPelican
FS;FOX;Flyr
FA;SFR;FlySafair
;FSM;FlySchool
;FRA;FR Aviation
FH;FHY;Freebird Airlines
;FHM;Freebird Airlines Europe
;FRG;Freight Runners Express
BF;FBU;French Bee
F9;FFT;Frontier Airlines
JH;FDA;Fuji Dream Airlines
FU;FZA;Fuzhou Airlines
GH;GTR;Galistair
;GMA;Gama Aviation (UK)
;GAJ;Gama Aviation (US)
GA;GIA;Garuda Indonesia
4G;GZP;Gazpromavia
;DOR;General Atomic AeroTech Systems
;GNX;Genex
9D;NMG;Genghis Khan Airlines
;GEL;Geo Sky Airline
GH;IGT;Georgian Airlines
A9;TGZ;Georgian Airways
ZQ;GER;German Airways
;GFD;Gesellschaft Fur Flugzieldarstellung
;GES;Gestair
GW;GJT;GetJet Airlines
;DML;Getjet Airlines Latvia
NJ;GHT;Ghadames Air Transport
;GJE;Global Air Charters
5S;GAK;Global Air Transport
;GBL;Global Airways
G6;GXA;Global Crossing Airlines
;SVW;Global Jet Luxembourg
;GSS;Global Supply Systems
;GAC;GlobeAir
GH;GLP;Globus
G8;GOW;Go First
G7;GJS;GoJet 
G3;GLO;GOL Linhas Aereas
;GDK;Goldeck Flug
Y5;GMR;Golden Myanmar Airlines
;QUE;Gouvernement du Quebec
IV;GPX;GP Aviation
;GFM;Grafair
YR;CVU;Grand Canyon Airlines
CN;GDC;Grand China Air
GV;GUN;Grant Aviation
HB;HGB;Greater Bay Airlines
Q9;GWG;Green Africa Airways
;GAG;Greybird Aviation
;GTX;GTA Air
GF;GFA;Gulf Air
IF;TSU;Gulf and Caribbean Cargo
;GWC;Gulf Wings
G2;GBG;GullivAir
;GUA;Guna Airlines
GX;CBG;GX Airlines
HR;HHN;Hahn Air
;HAI;Hai Au Aviation
HU;CHH;Hainan Airlines
;HGR;Hangar 8
;GKS;Hans Airways
;HMJ;Harmony Jets
HA;HAL;Hawaiian Airlines
NS;HBH;Hebei Airlines
YO;MCM;Heli Air Monaco
;HLR;Heli Air Services
;HHE;Heli Holland
;HLI;Heli Securite
;HSO;Heli Service International
;HLU;Héli-Union
;HEL;Helicol
;JBA;Helijet International
;HTS;Helistar
;HSR;Helistar
;HDR;Helitrans
;HTY;HELITY Copter Airlines
2L;OAW;Helvetic Airways
;HER;Hera Flight
H3;HRM;Hermes Airlines
;HRN;Heron Aviation
HN;HST;Heston Airlines
4H;HGG;Hi Air
5K;HFY;Hi Fly
5M;HFM;Hi Fly Malta
HG;HBN;Hibernian Airlines
H9;HIM;Himalaya Airlines
OI;HND;Hinterland Aviation
H7;HYM;HiSky
H4;HYS;HiSky Europe
;NTH;Hokkaido Air System
RH;HKC;Hong Kong Air Cargo
HX;CRK;Hong Kong Airlines
UO;HKE;Hong Kong Express
;HPJ;Hop-A-Jet
QX;QXE;Horizon Air
;HTM;HTM Helicopter Travel Munich
;ETI;Hummingbird Aviation
MR;MML;Hunnu Air
0Q;HYD;Hydro Quebec
;HYP;Hyperion Aviation
F7;RSY;I-Fly
WQ;SWQ;iAero Airways
II;CSQ;IBC Airways
IB;IBE;Iberia
I2;IBS;Iberia Express
E9;EVE;Iberojet
FW;IBX;Ibex Airlines
QI;IAN;Ibom Air
X8;ICD;Icaro
FI;ICE;Icelandair
;ICF;ICS-Aero
;IFL;IFL Group
;JTI;ImperialJet
6E;IGO;IndiGo
QZ;AWQ;Indonesia AirAsia
;ITI;iNTAIRLINE
;HGT;Intel Air Shuttle
JY;IWY;InterCaribbean Airways
K8;IJW;InterJet West
;RED;International Committee of the Red Cross
;IJM;International Jet Management
3L;ISK;InterSky
IO;IAE;IrAero
IR;IRA;Iran Air
B9;IRB;Iran Airtour
EP;IRC;Iran Aseman Airlines
;IGC;Iraq Gate Company
IA;IAW;Iraqi Airways
;LVB;IRS Airlines
6H;ISR;Israir Airlines
AZ;ITY;ITA Airways
;ITL;Italfly
;IXR;iXAir
4I;IZM;Izair
I8;IZA;Izhavia
;LTD;JA Air Charter
JC;JEX;JAL Express
JM;JMA;Jambojet
3X;JAC;Japan Air Commuter
JL;JAL;Japan Airlines
NU;JTA;Japan Transocean Air
JO;JAW;Jasmin Airways
J9;JZR;Jazeera Airways
QK;JZA;Jazz Aviation
QD;JCC;JC Airlines
;JCB;JC Bamford Excavators
7C;JJA;Jeju Air
9W;JAI;Jet Airways
JF;JAA;Jet Asia Airways
;PJS;Jet Aviation Business Jets
;JAS;Jet Aviation Flight Services
;VCN;Jet Aviation Zurich Airport
N2;JCT;Jet Charter
;EDG;Jet Edge
;JEI;Jet Executive
;RFE;Jet Express
;JFL;Jet Fly Airline
;JIT;Jet It
JL;JTL;Jet Linx Aviation
;JLG;Jet Logistics
;JDI;Jet Story
;JTN;Jet Test International
LS;EXS;Jet2
4J;JRC;Jetair Caribbean
;PLS;Jetalliance East
;JBC;Jetbee Czech
B6;JBU;JetBlue Airways
;JCL;Jetcall
0J;JCS;Jetclub
;QNZ;Jetconnect
;JEF;JetFlite
;JFA;Jetfly Aviation
;JKH;Jetkontor
S2;JLL;JetLite
;JNL;JetNetherlands
;JRT;JetRight
JA;JAT;JetSMART
WJ;JES;JetSMART Argentina
JZ;JAP;JetSMART Peru
JQ;JST;Jetstar Airways
3K;JSA;Jetstar Asia
GK;JJP;Jetstar Japan
;JSH;JetStream
;VTB;JetStream Charter
;RSP;Jetsuite Air
;JTD;Jettime
WU;JWX;Jetways Airlines
;JLB;Jhonlin Air Transport
;JDL;Jiangsu Jingdong Cargo Airlines
RY;CJX;Jiangxi Air
LJ;JNA;Jin Air
;JXX;Jinxiang Airlines
;JIV;Jivair
;JON;Jonair
;JNK;Jonika
R5;JAV;Jordan Aviation
;JCI;Jordan International Air Cargo
JR;JOY;JoyAir
XE;JSX;JSX
JZ;JBW;Jubba Airways
;JUP;Jump Air
HO;DKH;Juneyao Air
;JSY;Jung Sky
;JOC;Just Us Air
8K;KMI;K-Mile Air
;KAY;K5-Aviation Germany
;KAI;KaiserAir
K4;CKS;Kalitta Air
K9;KFS;Kalitta Charters
K5;KII;Kalitta Charters II
RQ;KMF;Kam Air
;KMK;Kamaka Air
K8;KND;Kan Air
AB;KGS;KAP.kg
WW;KXP;Kargo Xpress
3Y;KAE;Kartika Airlines
;KRU;Karun Airlines
;KDC;KD Air
FK;KEW;Keewatin Air
FK;KFA;Kelowna Flightcraft Air
M5;KEN;Kenmore Air
4K;KBA;Kenn Borek Air
KQ;KQA;Kenya Airways
;KEY;Key Air
KG;LYM;Key Lime Air
;KEE;Keystone Air Service
;KHF;KhabAvia
;KHO;Khors Air
;KIS;Kish Air
;KLJ;KlasJet
KL;KLM;KLM
WA;KLC;KLM Cityhopper
;SHW;KN Helicopters
KO;KMA;Komiaviatrans
KE;KAL;Korean Air
;KSM;Kosmos Airlines
KI;SSJ;Krasavia
;KUK;Kudlik Aviation
KY;KNA;Kunming Airlines
KU;KAC;Kuwait Airways
B0;DJT;La Compagnie
;NIS;La Costena
;SKQ;Labcorp
5U;LDE;LADE
TM;LAM;LAM
LQ;MKR;Lanmei Airlines
QV;LAO;Lao Airlines
LK;LLL;Lao Skyway
4L;LAU;LAS Cargo
QL;LER;Laser Airlines
LA;LAN;LATAM Airlines
JJ;TAM;LATAM Brasil
UC;LCO;LATAM Cargo
M3;LTG;LATAM Cargo Brasil
L7;LAE;LATAM Cargo Colombia
LU;LXP;LATAM Chile
4C;ARE;LATAM Colombia
XL;LNE;LATAM Ecuador
PZ;LAP;LATAM Paraguay
LP;LPE;LATAM Peru
LW;LDA;Lauda Europe
W4;LCB;LC Peru
;LSA;Leader
;LGF;Legacy Airways
;DVY;Legends Airways
LI;LIA;LIAT
LN;LAA;Libyan Airlines
YL;LWA;Libyan Wings
;LHB;Liebherr Aerospace
GE;GBB;Lift Airline
;LIM;Limitless Airways
;TUY;Línea Turística Aereotuy
JT;LNI;Lion Air
;LIP;Lipican Aer
;UHO;LLC H3Operations
LM;LOG;Loganair
LT;SNG;LongJiang Airlines
6T;LGT;Longtail Aviation
GJ;CDC;Loong Air
LO;LOT;LOT
8L;LKE;Lucky Air
LH;DLH;Lufthansa
;GEC;Lufthansa Cargo
CL;CLH;Lufthansa CityLine
;LTR;Lufttransport
;UNY;Lunds Universitet
LG;LGL;Luxair
;LXA;Luxaviation
;AAB;Luxaviation Belgium
;LMJ;Luxaviation E.A
;LXG;Luxaviation Germany
;LNX;Luxaviation UK
;LRQ;Luxembourg Air Ambulance
BN;LWG;Luxwing
;LYD;Lydd Air
L2;LYC;Lynden Air Cargo
Y9;DAT;Lynx Air
MA;MEN;MAE Aircraft Management
DJ;SRR;Maersk Air Cargo
UJ;GMT;Magnicharters
W5;IRM;Mahan Air
;WMA;Makers Air
3W;MWI;Malawian Airlines
MH;MAS;Malaysia Airlines
Q2;DQA;Maldivian
DB;MLT;Maleth-Aero
;MAE;Mali Air
OD;MXD;Malindo Air
;MAY;Malta Air
MT;MMO;Malta MedAir
;MNM;Manasik Aviation
AE;MDA;Mandarin Airlines
7Y;MYP;Mann Yadanarpon Airlines
NR;MAV;Manta Air
7M;PAM;Map Linhas Aereas
;MTO;Marathon Airlines
MP;MPH;Martinair Holland
;MRA;Martinaire
M7;MAA;MasAir Cargo Airline
MY;MWG;MASwings
L6;MAI;Mauritania Airlines International
VM;NGL;Max Air
;MAX;Max Aviation
;NTW;Maxair
6M;MXM;Maximus Airlines
2M;MYD;Maya Island Air
7M;MYI;MAYAir
;MKL;McCall Aviation
;MDS;McNeely Charter Services
ME;MEA;MEA
VL;MEV;Med-View Airline
;MDM;Medavia
5M;MDO;Mel Air
;MRJ;Meraj Airlines
4X;MEC;Mercury Air Cargo
;MEM;Meridian
;MMM;Meridian Air Company
YV;ASH;Mesa Airlines
M2;MHV;MHS Aviation
LL;BSK;Miami Air International
;MGD;Miami Air Lease
OM;MGL;MIAT Mongolian Airlines
;MFG;Mid Africa Aviation
;DZR;Midwest Aviation
;MWT;Midwest Aviation Division
;MJF;MJet
MB;MNB;MNG Airlines
;MXE;Moçambique Expresso
WD;MWM;Modern Logistics
QM;MCR;Monacair
;MAL;Morningstar Air Express
M9;MSI;Motor Sich Airlines
NM;NZM;Mount Cook Airline
C2;MTN;Mountain Air Cargo
;FTH;Mountain Aviation
;MVE;Move
2Y;MYU;My Indo Airlines
;MJS;My Jet Saver
8M;MMA;Myanmar Airways International
UB;UBA;Myanmar National Airlines
MJ;MYW;MyWay Airlines
;APX;Naljets Limited
IN;LKN;Nam Air
;ACK;Nantucket Airlines
JY;JYA;National Air Charters
N8;NCR;National Airlines
;NAE;National Airways
;QJE;National Jet Systems
ON;RON;Nauru Airlines
ZN;NAY;Naysa
NO;NOS;Neos
RA;RNA;Nepal Airlines
NA;NSS;Nesma Ailrines Saudi Arabia
NE;NMA;Nesma Airlines
1I;EJA;NetJets
;NJE;NetJets Europe
;NJU;Netjets UK
;NWK;Network Aviation
EJ;NEA;New England Airlines
;UDG;New England Patriots
;NHC;NHC Northern Helicopter
;NHD;NHV
;NHZ;NHV Helicopters
;JTZ;Nicholas Air
;EXT;NightExpress
NP;NIA;Nile Air
KZ;NCA;Nippon Cargo Airlines
DD;NOK;Nok Air
N5;NRL;Nolinor Aviation
;OMD;Nomadic Aviation
;NHX;Noordzee Helikopters Vlaanderen
ND;NDA;Nordica
Y7;TYA;NordStar
N4;NWS;Nordwind Airlines
;FNA;Norlandair
N7;FCM;NORRA
N0;NBT;Norse Atlantic Airways
;DOC;Norsk Luftambulanse
;NCB;North Cariboo Air
;NCJ;North Central
;NFA;North Flying
;R3D;North Pole Parcel Service
;MVK;North Star Aviation
0E;NWC;North-West Air Company
CO;CNW;North-Western Cargo International Airlines
HW;NWL;North-Wright Airways
;NEW;Northeastern Aviation Corporation
;NLI;Northern Air
NC;NAC;Northern Air Cargo
;NJM;Northern Jet Management
;NTA;Northern Thunderbird Air
;NAL;Northway Aviation
;NWF;Northwest Flyers
J3;PLR;Northwestern Air
;NAX;Norwegian
DY;NOZ;Norwegian Air Shuttle AOC
LE;NSW;Norwegian Air Sweden
D8;NSZ;Norwegian Air Sweden AOC
BJ;LBT;Nouvelair Tunisie
;NOV;Nova Airways
NG;NAI;Novair
N9;NVR;Novair
;NOJ;NovaJet
VQ;NVQ;Novoair
;KPO;Nxt Jet
OJ;NYX;Nyxair
;NTF;OK Aviation Group
BK;OKA;Okay Airways
OA;OAL;Olympic Air
;OLY;Olympus Airways
WY;OMA;Oman Air
OY;OAE;Omni Air International
;DRL;Omni Air Transport
;OAV;Omni Aviation
;OMI;Omni Taxi Aereo
OX;OEW;One Airways
LV;BOS;Open Skies
6O;OBS;Orbest
O7;ORG;Orenburzhye
OC;ORC;Oriental Air Bridge
OG;OGN;Origin Air
;PUL;Ornge Air
;OSJ;Oscar Jet
;SCQ;OSM Aviation Academy
JF;OTT;OTT Airlines
OF;OLA;Overland Airways
;OXF;Oxford Aviation Academy
;OYO;Oyonnair
;WIS;Paccair
BL;PIC;Pacific Airline
;PXT;Pacific Coast Jet
8P;PCO;Pacific Coastal Airlines
;PVD;PADAviation
PK;PIA;Pakistan International Airlines
PB;PVL;PAL Airlines
2P;GAP;PAL Express
P9;PXC;Palau Express Airlines
4L;PNA;Palau National Airlines
PN;PAA;Pan American Airways
;PEA;Pan Europeenne Air Service
8Y;AAV;Pan Pacific Airlines
;VPC;Panaviatic
;RJB;Panellenic Airlines
;PNO;Panorama Aviation
ZP;AZP;Paranair
P6;PSC;Pascan Aviation
OP;DIG;PassionAir
;PLZ;Patient Airlift Services
;PPT;Patria Pilot Training
7N;PWD;PAWA Dominicana
MM;APJ;Peach
EO;KAR;Pegas Fly
PC;PGT;Pegasus Airlines
;PEG;Pegasus Elite Aviation
;PFY;Pel-Air
IP;PAS;Pelita Air
PE;PEV;People's
YP;PAG;Perimeter Aviation
UF;PER;Petroleum Air Service
;PTK;Petropavlovsk-Kamchatsky Air
;PHM;PHI
PR;PAL;Philippine Airlines
Z2;APG;Philippines AirAsia
PH;GRB;Phoenix Air
PT;PDT;Piedmont Airlines
;PCH;Pilatus Flugzeugwerke
;PIP;Pilot Flight Academy
;PNP;Pineapple Air
;SOW;Pink Sparrow
;SFZ;Pionair Australia
ZX;GGN;Pivot Airlines
;PXR;PixAir Survey
;PMS;Planemaster Services
;CNS;PlaneSense
OG;FPY;Play
PU;PUE;Plus Ultra
CG;TOK;PNG Air
DP;PBD;Pobeda
PO;PAC;Polar Air Cargo
PI;RKA;Polar Airlines
;LPR;Polish Medical Air Rescue
PD;POE;Porter Airlines
NI;PGA;Portugalia Airlines
M4;MSA;Poste Air Cargo
;PWC;Pratt and Whitney
PW;PRF;Precision Air
;MVP;Premier Private Jets
;PRD;Presidential Aviation
;PWA;Priester Aviation
;PRZ;Prime Aviation
;PNC;Prince Aviation
;PRY;Priority Air Charter
;PVO;Privaira
;OKC;Private Jets
8W;PWF;Private Wings
P6;PVG;Privilege Style
;PAV;ProAir Aviation
P0;PFZ;Proflight Air Services
;PRO;Propair
OH;JIA;PSA Airlines
HH;QNT;Qanot Sharq
QF;QFA;Qantas
;QLK;QantasLink
;QAF;Qatar - Amiri Flight
QR;QTR;Qatar Airways
QE;QQE;Qatar Executive
IQ;QAZ;Qazaq Air
QB;QSM;Qeshm Airlines
QW;QDA;Qingdao Airlines
;QJT;Qingdao Jiutian International Flight Academy
;QNR;Queen Air
;LBQ;Quest Diagnostics
;QAJ;Quick Air Jet Charter
QO;FQA;Quikjet Cargo Airlines
MT;MTL;RAF-Avia
;RXP;RAM Express
;RVR;Ravenair
7H;RVF;Ravn Alaska
TH;RMY;Raya Airways
RN;RKT;Rayani Air
;REH;Reach Air Medical Services
;RLT;Real Tonga Airline
;RIX;Rectrix Aviation
L5;REA;Red Air
;LAK;Red Wing Aviation
WZ;RWZ;Red Wings
;BXR;Redding Aero Enterprises
;RHH;Redstar Aviation
RX;RGE;Regent Airways
YS;RAE;Regional
8N;REG;Regional Air Services
;RNI;Rennia Aviation
YX;RPA;Republic Airways
ZL;RXA;Rex
T4;RDS;Rhoades Aviation
;RCA;Richland Aviation
RI;OEY;Rimbun Air
4T;WEW;Rise Air
NJ;RCR;ROMCargo Airlines
;ROM;Roraima Airways
;REM;Rose Air
FV;SDM;Rossiya
;RSD;Rossiya - Special Flight Squadron
RG;RJD;Rotana Jet
;RAX;Royal Air Freight
AT;RAM;Royal Air Maroc
BI;RBA;Royal Brunei Airlines
;RFJ;Royal Falcon
RJ;RJA;Royal Jordanian
JO;RYW;Royal Wings
RW;RYL;Royalair Philippines
;RSB;Rubystar
DR;RLH;Ruili Airlines
R4;RLB;RUS Aviation
7R;RLU;Rusline
;SUM;Russia - Ministry of Emergency Situations (MChS)
5R;RUC;Rutaca Airlines
;REV;RVL Aviation
WB;RWD;RwandAir
;RWL;RWL German Flight Academy
7S;RYA;Ryan Air (USA)
FR;RYR;Ryanair
RK;RUK;Ryanair UK
;RAC;Ryukyu Air Commuter
S7;SBI;S7 Airlines
XZ;EXY;SA Express
;SCT;SAAB Aircraft
;TGT;SAAB Nyge Aero
;SHP;SAF Helicopteres
F2;XLK;Safarilink Aviation
4Q;SFW;Safi Airways
;IRZ;Saha Airlines
OV;OMS;SalamAir
;MOZ;Salzburg Jet Aviation
OL;PAO;Samoa Airways
;SMF;San Marino Executive Aviation
;LRS;Sansa
;KGB;Sapsan Airline
;SSR;Sardinian Sky Service
SK;SAS;SAS
SL;SZS;SAS Connect
;SVS;SAS Link
SP;SAT;SATA Air Acores
9R;NSE;Satena
SV;SVA;Saudia
;SAU;Saurya Airlines
;SJA;Sawyer Aviation
;SXN;SaxonAir
S3;BBR;SBA Airlines
;ABF;Scanwings
DV;VSV;SCAT
TR;TGW;Scoot
BB;SBS;Seaborne
K5;SQH;SeaPort Airlines
;SRC;Searca
;JCM;Secure Air Charter
IS;SHI;Sepehran Airlines
ER;SEP;Serene Air
;SNM;Servizi Aerei
;RVP;Sevenair
D2;SSF;Severstal Aircompany
O3;CSS;SF Airlines
SC;CDG;Shandong Airlines
FM;CSH;Shanghai Airlines
ZH;CSZ;Shenzhen Airlines
;SHS;Shirak Avia
N9;SHA;Shree Airlines
S5;TCF;Shuttle America
5E;SGN;Siam General Aviation
3U;CSC;Sichuan Airlines
;SID;Sideral Linhas Aereas
P8;PKW;Sierra West Airlines
;SUA;Silesia Air
ZP;AZQ;Silk Way Airlines
7L;AZG;Silk Way West Airlines
;SIS;Silver Air
;SLD;Silver Air
3M;SIL;Silver Airways
;SCR;Silver Cloud Air
;SLH;Silverhawk Aviation
;SLR;Silverstone Air Services
;RMK;Simrik Airlines
SQ;SIA;Singapore Airlines
;SQC;Singapore Airlines Cargo
;SIO;Sirio
SA;CIG;Sirius Aero
KI;SJB;SKS Airways
H2;SKU;Sky Airline
H8;SKX;Sky Airline Peru
ZA;SWM;Sky Angkor Airlines
;HVY;Sky Bus
RD;SNA;Sky Cana
GQ;SEH;Sky Express
U3;SAY;Sky Gates Airlines
DO;SHH;Sky High Aviation Services
;KGK;Sky KG Airlines
GG;KYE;Sky Lease Cargo
ML;FML;Sky Mali
;ERY;Sky Quest
;SFY;Skyborne Airline Academy
;KYB;Skybridge
;IOS;Skybus
;KFE;Skyfirst
M8;MSJ;SkyJet Airlines
;SLQ;SkyLink Express
BC;SKY;Skymark Airlines
;SYB;Skyservice Business Aviation
TE;IGA;Skytaxi
QN;SKP;Skytrans
PQ;SQP;SkyUp Airlines
4A;DYN;Skyvalue Airways
OW;SEW;Skyward Express
;SKZ;Skyway Enterprises
OO;SKW;SkyWest Airlines
;SLJ;Slam Lavori Aerei
;SLN;Sloane Helicopters
;SME;Smart Aviation
;SAH;Smart Jet
5N;AUL;Smartavia
;SMG;Smartline
6Y;ART;SmartLynx
;MYX;SmartLynx Airlines Estonia
;LYX;SmartLynx Malta
QS;TVS;Smartwings
7O;TVL;Smartwings Hungary
3Z;TVP;Smartwings Poland
6D;TVQ;Smartwings Slovakia
;TWY;Solairus Aviation
6J;SNJ;Solaseed Air
;SET;Solenta Aviation
;SOX;Solid Air
SP;SOP;Solinair
IE;SOL;Solomon Airlines
SZ;SMR;Somon Air
6K;SGB;Songbird Airways
S8;SDA;Sounds Air
SA;SAA;South African Airways
PL;SOA;Southern Air Charter
9X;FDY;Southern Airways Express
;SXI;Southern Cross International
WN;SWA;Southwest Airlines
;LDX;Sparfell Luftfahrt
;SPG;Speedwings Executive Jet
SG;SEJ;SpiceJet
NK;NKS;Spirit Airlines
;SJJ;SpiritJets
9C;CQH;Spring Airlines
IJ;SJO;Spring Airlines Japan
P8;SRN;SprintAir
UL;ALK;SriLankan Airlines
SJ;SJY;Sriwijaya Air
PV;SBU;St Barth Commuter
;STB;St Barth Executive
;KFB;STAjets
S5;SDG;Star Air
;BRH;Star Air Cargo
4R;SEK;Star East Airlines
2I;SRU;Star Peru
;STQ;Star Wings
;SWP;Star Work Sky
7G;SFJ;Starflyer
QP;SLT;Starlight Airlines
Q4;TLK;Starlink Aviation
JX;SJX;Starlux
;NSH;Sterling Aviation
8F;STP;STP Airways
;SUB;Suburban Air Freight
SD;SUD;Sudan Airways
;SUT;Summit Air
1Y;SNR;Sun Air
SY;SCX;Sun Country Airlines
EZ;SUS;Sun-Air
ZU;SAV;Sunair Aviation
DK;VKG;Sunclass Airlines
;JSN;Suncor Energy
SR;SDR;Sundair
R8;SUV;Sundance Air Venezuela
;AKK;Sundt Air
;MDT;Sundt Air
XQ;SXS;SunExpress
;BBK;Sunkar Air
S6;KSZ;Sunrise Airways
;SSQ;Sunstate Airlines
;CNK;Sunwest Aviation
WG;SWG;Sunwing Airlines
Y8;YZR;Suparna Airlines
IU;SJV;Super Air Jet
;URF;Surf Air
PY;SLM;Surinam Airways
;SQS;Susi Air
;SWE;Svenskt Ambulansflyg
;JET;Svenskt Industriflyg
;SVD;SVG Air
;HMF;Sweden - Swedish Maritime Administration
WT;SWT;Swiftair
;MDF;Swiftair Hellas
LX;SWR;Swiss
;SAZ;Swiss Air-Ambulance
;SFS;Swiss Flight Services
LZ;SWU;Swiss Global Air Lines
;HSI;Swiss Helicopter
WO;WSW;Swoop
7E;AWU;Sylt Air
;SYN;Syncrude Canada
RB;SYR;Syrian Air
TW;TWB;T'way Air
DT;DTA;TAAG Angola Airlines
2L;BOL;TAB Cargo
;TBN;Taban Airlines
5U;TGU;TAG Airlines
;VIP;TAG Aviation
;TEU;TAG Aviation Malta
;TAG;TAG Aviation San Marino
TQ;PGN;Tailwind Air
TI;TWI;Tailwind Airlines
7J;TJK;Tajik Air
;TFF;Talon Air
Z3;TNR;Tanana Air Service
TQ;TDM;Tandem-Aero
TP;TAP;TAP Air Portugal
K3;TQN;Taquan Air
YQ;LCT;TAR Aerolineas
3T;TQQ;Tarco Aviation
RO;ROT;Tarom
HJ;TMN;Tasman Cargo Airlines
SF;DTH;Tassili Airlines
N6;TZS;TCA
OT;CDO;Tchadia Airlines
X5;OTJ;Ten Airways
T8;TVR;Terra Avia
;XLR;Texel Air
;TEZ;Tez Jet Airlines
FD;AIQ;Thai AirAsia
XJ;TAX;Thai AirAsia X
TG;THA;Thai Airways
ZT;ESS;Thai Eastar Jet
SL;TLM;Thai Lion Air
WE;THD;Thai Smile
VZ;TVJ;Thai Vietjet Air
;TLJ;Thalair
;LJC;The Little Jet Company
MT;TCX;Thomas Cook Airlines
H3;TCN;Thomas Cook Aviation
;TIV;Thrive
;THU;Thunder Airlines
HT;CTJ;Tianjin Air Cargo
GS;GCR;Tianjin Airlines
TV;TBA;Tibet Airlines
IT;TTW;Tigerair Taiwan
;TIE;Time Air
ZT;AWC;Titan Airways
TM;TMT;Titan Airways Malta
;TFX;Toll Aviation
L1;TTL;Total Linhas Aereas
;TOY;Toyo Aviation
C3;TDR;Trade Air
TJ;GPD;Tradewind Aviation
Q8;TSG;Trans Air Congo
7T;RTM;Trans Am Aero Express del Ecuador
;TGY;Trans Guyana Airways
;GGT;Trans Island Airways
;TMW;Trans Maldivian Airways
R2;GTS;Transair
R9;MUI;Transair
HV;TRA;Transavia
TO;TVF;Transavia France
;KTB;Transaviabaltika
;TXC;Transaviaexport Airlines
8B;TNU;TransNusa
;TMC;Travel Management Company
GM;TMG;Tri-MG Intra Asia Airlines
;TSS;Tri-State Aero
IL;TGN;Trigana Air
9N;TOS;Tropic Air
2T;TRJ;Trujet
TZ;TDS;Tsaradia
BY;TOM;TUI Airways
X3;TUI;TUI fly
OR;TFL;TUI fly Netherlands
6B;BLX;TUI fly Nordic
TB;JAF;TUIfly Belgium
;MCS;TUM AeroCarga
TU;TAR;Tunisair
UG;TUX;Tunisair Express
TK;THY;Turkish Airlines
T5;TUA;Turkmenistan Airlines
;TRK;Turkuaz Airlines
T9;VTU;Turpial Airlines
U8;CYF;Tus Airways
T7;TJT;Twin Jet
;TYW;Tyrol Air Ambulance
;TJS;Tyrolean Jet Service
;UGJ;UG Jet
UR;UGD;Uganda Airlines
;UKL;Ukraine Air Alliance
PS;AUI;Ukraine International Airlines
;UWJ;Ukrainian Wings
GO;KZU;ULS Airlines Cargo
UE;UJC;Ultimate Air Shuttle
OL;ULS;Ultra Air
B7;UIA;UNI Air
UW;UTP;Uni-Top Airlines
;UAG;Union Aviation
;UQA;Unique Air
UA;UAL;United Airlines
;UNO;United Nations
U5;NUA;United Nigeria Airlines
;XCN;United States - US Forest Service
U7;UCG;Uniworld Air Cargo
5X;UPS;UPS
UD;UBD;UR Airlines
U6;SVR;Ural Airlines
UQ;CUH;Urumqi Airlines
BS;UBG;US-Bangla Airlines
;JUS;USA Jet Airlines
TD;BLK;USAC Airways 695
UT;UTA;UTair
RT;UVT;UVT Aero
HY;UZB;Uzbekistan Airways
ZV;VAX;V Air
;VVV;Valair
;VLJ;Valljet
V9;VAA;Van Air Europe
JW;VNL;Vanilla Air
;VRH;Varesh Airlines
0V;VFC;Vasco
;VNE;Venezolana
;VTF;Veteran Airline
;VPB;Veteran Airlines
;VIL;VI Airlink
VC;SRY;ViaAir
;FTN;Victory Air
V4;VES;Vieques Air Link
VJ;VJC;VietJet Air
VN;HVN;Vietnam Airlines
VU;VAG;Vietravel Airlines
NN;MOV;VIM Airlines
VX;VRD;Virgin America
VS;VIR;Virgin Atlantic
;VGI;Virgin Atlantic International
VA;VOZ;Virgin Australia
;OZW;Virgin Australia Regional
;VIS;Vision Air International
V2;RBY;Vision Airlines
;VJT;VistaJet
UK;VTI;Vistara
VH;VVC;Viva Air
VV;VPE;Viva Air Peru
VB;VIV;VivaAerobus
2Z;PTB;VoePass Linhas Aereas
;VLZ;Volare Aviation
Y4;VOI;Volaris
Q6;VOC;Volaris Costa Rica
N3;VOS;Volaris El Salvador
;TMB;Volato
VI;VDA;Volga-Dnepr Airlines
V7;VOE;Volotea
;VXS;Voluxis
;VRG;Voyage Air
VC;VAL;Voyageur Airways
VY;VLG;Vueling
;BTX;VW Air Service
EB;PLM;Wamos Air
4W;WAV;Warbelows Air Ventures
;WSG;Wasaya Airways
;WAN;Wataniya Airways
PN;CHB;West Air
;WLX;West Air
;PCM;West Air
;SWN;West Air Sweden
;NPT;West Atlantic
;WCC;West Coast Charters
WV;WAA;Westair Aviation
WU;WST;Western Air
;WAE;Western Air Express
ST;STT;Western Aircraft
KD;WGN;Western Global Airlines
WS;WJA;WestJet
WR;WEN;WestJet Encore
WI;WHT;White
WF;WIF;Wideroe
;WIG;Wiggins Airways
;WHS;Wiking Helikopter Service
WM;WIA;Winair
;QGA;Windrose Air Jetcharter
7W;WRC;Windrose Airlines
P5;RPB;Wingo
IW;WON;Wings Air
W7;WLB;Wings of Lebanon
W6;WZZ;Wizz Air
5W;WAZ;Wizz Air Abu Dhabi
W9;WUK;Wizz Air UK
WL;WAL;World Atlantic Airlines
3G;WCM;World Cargo Airlines
2W;WFL;World2Fly
3P;WPT;World2Fly Portugal
;WWI;Worldwide Jet Charter
8V;WRF;Wright Air Service
EE;EST;Xfly
MF;CXA;Xiamen Air
;XOJ;Xo
R3;SYL;Yakutia Airlines
YC;LLM;Yamal Airlines
YE;ANR;YanAir
IY;IYE;Yemenia
YT;NYT;Yeti Airlines
YG;HYT;YTO Cargo Airlines
ZO;IZG;Zagros Airlines
ZN;AZB;Zambia Airways
;MBN;Zambian Airways
;TAN;Zanair
;XEN;Zenflight
;BZE;Zenith Aviation
ZK;ZAV;Zetavia
XM;IMX;Zimex Aviation
;AZD;Zimex Aviation Austria
ZG;TZP;ZIPAIR
;ORZ;Zorex
